<<<<<<< HEAD
<<<<<<< HEAD
<<<<<<< HEAD
<<<<<<< HEAD
<<<<<<< HEAD
=======
1.	Тарас Григорович Шевченко
2.	«Тополя»
3.	Полюбила чорнобрива
4.	Козака дівчина.
5.	Полюбила – не спинила: 
>>>>>>> featu/task1
=======
6.	Пішов – та й загинув...
7.	Якби знала, що покине –
8.	Було б не любила;
9.	Якби знала, що загине —
10.	Було б не пустила; 
>>>>>>> featu/task2
=======
11.	Якби знала – не ходила б
12.	Пізно за водою,
13.	Не стояла б до півночі
14.	З милим під вербою…
15.	Минув і рік, минув другий – 
>>>>>>> featu/task3
=======
16.	Козака немає;
17.	Сохне вона, як квіточка;
18.	Мати не питає:
19.	"Чого в'янеш, моя доню?"
20.	Стара не спитала, 
>>>>>>> featu/task4
=======
21.	За сивого, багатого
22.	Тихенько єднала.
23.	"Іди, доню, – каже мати, –
24.	Не вік дівувати!
25.	Він багатий, одинокий – 
>>>>>>> featu/task5
